{
    "edit_format": "textbox",
    "edit_format_params": "",
    "data_type": "string",
    "sub_options": [],
    "validation_class": "",
    "validation_method": "",
    "default_value": "",
    "relations": {
        "at_sf_links": 4
    }
}