{
    "group_name": "footer",
    "title": "Custom Icon 3",
    "description": "",
    "property_type": "value",
    "css_components": [],
    "value_type": "string",
    "value_parameters": "",
    "depends_on": "",
    "value_group": "",
    "property_value": "",
    "display_order": 1003
}