{
    "group_name": "footer",
    "title": "SocialFooter Position",
    "description": "",
    "property_type": "value",
    "css_components": [],
    "value_type": "radio",
    "value_parameters": "={{ phrase('at_sf_left') }}\ncenter={{ phrase('at_sf_center') }}\nright={{ phrase('at_sf_right') }}",
    "depends_on": "",
    "value_group": "",
    "property_value": "",
    "display_order": 1000
}