{
    "group_name": "footer",
    "title": "Custom Background 3",
    "description": "",
    "property_type": "css",
    "css_components": [
        "background"
    ],
    "value_type": "",
    "value_parameters": "",
    "depends_on": "",
    "value_group": "",
    "property_value": [],
    "display_order": 1003
}